<svg width="769" height="834" viewBox="0 0 769 834" fill="none" xmlns="http://www.w3.org/2000/svg">
<path opacity="0.05" fill-rule="evenodd" clip-rule="evenodd" d="M-173 834C769 803.615 -173 834 769 803.615C769 803.615 769 416.1 769 38.5754C571.929 -195.951 216.866 715.535 46.312 715.535C-124.242 715.535 -173 327.026 -173 327.026L-173 834Z" fill="#00CD49"/>
</svg>
